module gitlab.com/gitlab-org/security-products/analyzers/tslint/v2

require (
	github.com/sirupsen/logrus v1.4.2
	github.com/urfave/cli v1.22.1
	gitlab.com/gitlab-org/security-products/analyzers/common/v2 v2.10.3
	gopkg.in/yaml.v2 v2.2.4 // indirect
)

go 1.13
